…
``` r
emotions_math <- genius_album(artist = "Margaret Glaspy", album = "Emotions and Math")
```

    ## Warning: The `printer` argument is soft-deprecated as of rlang 0.3.0.
    ## This warning is displayed once per session.

    ## Joining, by = c("track_title", "track_n", "track_url")

``` r
emotions_math
```

    ## # A tibble: 372 x 4
    ##    track_title       track_n  line lyric                                 
    ##    <chr>               <int> <int> <chr>                                 
    ##  1 Emotions And Math       1     1 Oh when I got you by my side          
    ##  2 Emotions And Math       1     2 Everything's alright                  
    ##  3 Emotions And Math       1     3 Its just when your gone               
    ##  4 Emotions And Math       1     4 I start to snooze the alarm           
    ##  5 Emotions And Math       1     5 Cause I stay up until 4 in the morning
    ##  6 Emotions And Math       1     6 Counting all the days 'til you're back
    ##  7 Emotions And Math       1     7 Shivering in an ice cold bath         
    ##  8 Emotions And Math       1     8 Of emotions and math                  
    ##  9 Emotions And Math       1     9 Oh it's a shame                       
    ## 10 Emotions And Math       1    10 And I'm to blame                      
    ## # ... with 362 more rows
…
``` r
# Example with 2 different artists and songs
artist_songs <- tribble(
 ~artist, ~track,
 "J. Cole", "Motiv8",
 "Andrew Bird", "Anonanimal"
)

artist_songs %>%
 add_genius(artist, track, type = "lyrics")
```

    ## Joining, by = c("artist", "track")

    ## # A tibble: 71 x 5
    ##    artist  track  track_title  line lyric                                  
    ##    <chr>   <chr>  <chr>       <int> <chr>                                  
    ##  1 J. Cole Motiv8 Motiv8          1 You really wanna know who Superman is? 
    ##  2 J. Cole Motiv8 Motiv8          2 Watch this, pow!                       
    ##  3 J. Cole Motiv8 Motiv8          3 I like him                             
    ##  4 J. Cole Motiv8 Motiv8          4 I think he's pretty cool               
    ##  5 J. Cole Motiv8 Motiv8          5 He's my idol                           
    ##  6 J. Cole Motiv8 Motiv8          6 I can't have no sympathy for fuck nigg…
    ##  7 J. Cole Motiv8 Motiv8          7 All this shit I've seen done made my b…
    ##  8 J. Cole Motiv8 Motiv8          8 Spill promethazine inside a double cup 
    ##  9 J. Cole Motiv8 Motiv8          9 Double up my cream, now that's a Doubl…
    ## 10 J. Cole Motiv8 Motiv8         10 Please don't hit my phone if it ain't …
    ## # ... with 61 more rows

Song Lyrics
-----------

### `genius_lyrics()`

If you want only a single song, you can use `genius_lyrics()`. Supply an artist and a song title as character strings, and voila.

``` r
memory_street <- genius_lyrics(artist = "Margaret Glaspy", song = "Memory Street")

memory_street
```

    ## # A tibble: 27 x 3
    ##    track_title    line lyric                                  
    ##    <chr>         <int> <chr>                                  
    ##  1 Memory Street     1 Ring the alarm                         
    ##  2 Memory Street     2 I'm on memory street                   
    ##  3 Memory Street     3 With him on my arm                     
    ##  4 Memory Street     4 And my feet on the dash of that car    
    ##  5 Memory Street     5 I don't dare                           
    ##  6 Memory Street     6 Walk down memory street                
    ##  7 Memory Street     7 Why remember                           
    ##  8 Memory Street     8 All the times I took forever to forget?
    ##  9 Memory Street     9 Call the guards                        
    ## 10 Memory Street    10 I'm at the gates                       
    ## # ... with 17 more rows
…
